,path,metal,species,energy
0,pac_pbed3_additionaldata_pt2001\CH3CH2CH2O,Pt,CH3CH2CH2O,2.376864164999972
1,pac_pbed3_additionaldata_pt2001\CH3CH2CH2OH,Pt,CH3CH2CH2OH,1.2752612299999555
2,pac_pbed3_additionaldata_pt2001\CH3CH2CH3,Pt,CH3CH2CH3,0.6224885499999573
3,pac_pbed3_additionaldata_pt2001\CH3CH2CHO,Pt,CH3CH2CHO,2.5319970999999555
4,pac_pbed3_additionaldata_pt2001\CH3CH2CHOH,Pt,CH3CH2CHOH,1.52426416499992
5,pac_pbed3_additionaldata_pt2001\CH3CH2COH,Pt,CH3CH2COH,1.6568970999999806
6,pac_pbed3_additionaldata_pt2001\CH3CHCH2O,Pt,CH3CHCH2O,2.6496570999999562
7,pac_pbed3_additionaldata_pt2001\CH3CHCH2OH,Pt,CH3CHCH2OH,1.676194164999913
8,pac_pbed3_additionaldata_pt2001\CH3CHCHO,Pt,CH3CHCHO,2.7072900349999145
9,pac_pbed3_additionaldata_pt2001\CH3CHCHOH,Pt,CH3CHCHOH,1.8082370999999853
10,pac_pbed3_additionaldata_pt2001\CH3CHCOH,Pt,CH3CHCOH,2.014790034999919
